Project 1: Wrangling, Exploration, Visualization
…
In the tracks dataset, there are 586672 observations. There are 1,104,349 observations in the artists dataset. There are 71531 unique artists in the tracks dataset." There are 1,104,349 unique artists in the artists dataset. There are 12,415 artists in the tracks dataset that are not in the artist dataset. There are 1,040,082 artists in the artists dataset that are not in the tracks dataset. There are 574,257 common ids in both datasets. The joined dataset is smaller that either of the tracks or artists dataset. I used inner join because when comparing popularity, it is useful to have both the song information and the artist popularity. 1052497 observations were dropped. The problem with this drop is that analysis with a partial dataset may not be accurate to real world data.

Wrangling

# Use mutate at least once to generate a variable that is a
# function of at least one other variable Sleepiness
# variable, higher value means song is good for sleeping
joined_dat <- joined_dat %>% mutate(sleepiness = ((danceability * 
    (-100)) + (energy * (-100)) + loudness * (-1) + acousticness * 
    100 - tempo))

joined_dat %>% arrange(desc(sleepiness))

## # A tibble: 574,257 x 27
##    id    duration_ms explicit artists primary_artist primary_artist_ re_year
##    <chr>       <dbl>    <dbl> <chr>   <chr>          <chr>            <chr>  
##  1 1mTa      900000        0 Relaxa Relaxation Sl 5f3oBa8B2mo3Mee 2014   
##  2 2QNQ       67682        0 White  White Noise B 7DCv5iEOfzc6EEe 2017   
##  3 4aRe       67682        0 Tinnit Tinnitus Cure  6q0VgvpCMizbPPe 2017   
##  4 78yA       55200        0 James  James Newton  2M4eNCvV3CJUswa 1999   
##  5 6NBi      300000        0 Baby S Baby Sweet Dr 7M4enEYox7R9wzk 2010   
##  6 6qRz       66262        0 White  White Noise M 0zaYnC5jWu6BKBz 2017   
##  7 47F1       61781        0 White  White Noise B 6N8XGdHPHPjyTm4 2017   
##  8 1ksi       64000        0 Astral Astral Noise   6ukbhEhFk72rEfy 2020   
##  9 5z83       72223        0 Erik E Erik Eriksson  2c5WYCqQGs0Utti 2016   
## 10 1SZh      163987        0 Natura Natural White 5vAOhgLzO7xatvz 2015   
## #  with 574,247 more rows, and 20 more variables: re_month <chr>,
## #   re_day <chr>, danceability <dbl>, energy <dbl>, key <dbl>, loudness <dbl>,
## #   mode <dbl>, speechiness <dbl>, acousticness <dbl>, instrumentalness <dbl>,
## #   liveness <dbl>, valence <dbl>, tempo <dbl>, time_signature <dbl>,
## #   genres <chr>, followers <dbl>, song_name <chr>, song_popularity <dbl>,
## #   artist_popularity <dbl>, sleepiness <dbl>

joined_dat %>% arrange((sleepiness))

## # A tibble: 574,257 x 27
##    id    duration_ms explicit artists primary_artist primary_artist_ re_year
##    <chr>       <dbl>    <dbl> <chr>   <chr>          <chr>            <chr>  
##  1 6ENO      149551        1 El Cho El Chombo      6iSZjc4kOoKZKiB 1999   
##  2 6kLT      255067        0                12QGPbN0fnuIlyE 2003   
##  3 4eUl      103393        1 El Cho El Chombo      6iSZjc4kOoKZKiB 1999   
##  4 5BC5      237267        1 MC Lyte MC Lyte        2ZbWlThDW0qSbI3 1993   
##  5 4gyP      169907        0 Badshah Badshah        0y59o4v8uw5crbN 2019   
##  6 2kJB      146507        1 Mk G Mk Glis      3TjISn9d9gIsTas 2013   
##  7 1yNO      246147        1 2Pac', 2Pac           1ZwdS5xdxEREPyS 2007   
##  8 6rpL      199467        0 Lou-Ka Lou-Kass       3t8mzc4McRkE2bb 2001   
##  9 2sHU      214947        0 Jam &  Jam & Suppose  42iAiw7Kn6Ji3xI 2008   
## 10 07WY      189653        0 J Balv J Balvin       1vyhD5VmyZ7KMfW 2021   
## #  with 574,247 more rows, and 20 more variables: re_month <chr>,
## #   re_day <chr>, danceability <dbl>, energy <dbl>, key <dbl>, loudness <dbl>,
## #   mode <dbl>, speechiness <dbl>, acousticness <dbl>, instrumentalness <dbl>,
## #   liveness <dbl>, valence <dbl>, tempo <dbl>, time_signature <dbl>,
## #   genres <chr>, followers <dbl>, song_name <chr>, song_popularity <dbl>,
## #   artist_popularity <dbl>, sleepiness <dbl>
# Use at least one `stringr` function with to do something
# with regex
joined_dat %>% select(artists) %>% filter(str_detect(artists, 
    "^Lil ")) %>% distinct(artists) %>% count()

## # A tibble: 1 x 1
##       n
##   <int>
## 1   143

# summary statistics Average danceability grouped by artists
joined_dat %>% group_by(artists) %>% summarize(mean_dance = mean(danceability)) %>% 
    arrange(desc(mean_dance))

## # A tibble: 106,738 x 2
##    artists                       mean_dance
##    <chr>                              <dbl>
##  1 Nu', 'Jo.Ke                        0.988
##  2 Horvth Tams', 'Pixa              0.986
##  3 Pitbull', 'Trina', 'Young Bo       0.986
##  4 Jo.Ke', 'Nu                        0.985
##  5 Hula Hop                           0.984
##  6 Yung Coke', 'Guacamole Niller      0.982
##  7 347aidan                           0.98 
##  8 The Jacksons', 'Mick Jagger        0.98 
##  9 Rikke Darling                      0.979
## 10 Bevok', 'beatsbyhand               0.977
## #  with 106,728 more rows

# Number of years in dataset
num_distinct <- function(x) n_distinct(!is.na(x))
joined_dat %>% select(re_year) %>% summarize_all(num_distinct)

## # A tibble: 1 x 1
##   re_year
##     <int>
## 1       1

# Lowest duration of song in seconds
joined_dat %>% group_by(artists) %>% summarize(min_duration = min(duration_ms)/1000) %>% 
    arrange(min_duration)

## # A tibble: 106,738 x 2
##    artists                                                  min_duration
##    <chr>                                                           <dbl>
##  1 Louis Armstrong                                                  3.34
##  2 Sarah Vaughan                                                    5.11
##  3 Benny Goodman                                                    5.99
##  4 The Dark Tenor                                                   6.36
##  5 Underground Sound Of Lisbon                                      6.37
##  6 Sergei Rachmaninoff', 'Leopold Stokowski                         7.52
##  7 Sergei Rachmaninoff', 'Arthur Rubinstein', 'Fritz Reiner         8.85
##  8 Ogden Nash                                                       9.68
##  9 The Slobs                                                       10.4 
## 10 Bing Crosby                                                     12.7 
## #  with 106,728 more rows

# Lowest duration of song in minutes
joined_dat %>% group_by(artists) %>% summarize(max_duration = max(duration_ms)/6000) %>% 
    arrange(desc(max_duration))

## # A tibble: 106,738 x 2
##    artists                                                          max_duration
##    <chr>                                                                   <dbl>
##  1                                                                 937.
##  2 Sheikh Mishary Rashid Alfasay                                            833.
##  3 Dan McKie                                                                800.
##  4 Mark Eteson                                                              799.
##  5 Dj Emma                                                                  783.
##  6 Will Holland                                                             781.
##  7 Serge Reggiani                                                           764.
##  8 Arya Acharya', 'Aastha Gill', 'Amaal Mallik', 'Ankit Tiwari', '         764.
##  9 Degos & Re-Done                                                          758.
## 10 Deekey                                                                   752.
## #  with 106,728 more rows

# Artists with the most range
joined_dat %>% group_by(artists) %>% summarize(artist_range = sum(sd(danceability * 
    100), sd(energy * 100), sd(abs(loudness)), sd(speechiness * 
    100), sd(acousticness * 100), sd(instrumentalness * 100), 
    sd(liveness * 100), sd(valence * 100), sd(tempo))) %>% arrange(desc(artist_range))

## # A tibble: 106,738 x 2
##    artists                                          artist_range
##    <chr>                                                   <dbl>
##  1 Sergei Prokofiev', 'William Kapell                       308.
##  2 Thorbjrn Egner', 'The Norwegian Radio Orchestra         293.
##  3 The Slobs                                                290.
##  4 Relaxation Sleep Meditation                              281.
##  5 Silent Knights                                           276.
##  6 Motel Connection                                         276.
##  7 K Dutta                                                  267.
##  8 Bill & Gloria Gaither                                    267.
##  9 Ondej Soukup                                            267.
## 10 Thorbjrn Egner', 'Katzenjammer                          263.
## #  with 106,728 more rows
…
## # A tibble: 1 x 27
##      id duration_ms explicit artists primary_artist primary_artist_ re_year
##   <int>       <int>    <int>   <int>          <int>            <int>   <int>
## 1     0           0        0       0              0                0       0
## #  with 20 more variables: re_month <int>, re_day <int>, danceability <int>,
## #   energy <int>, key <int>, loudness <int>, mode <int>, speechiness <int>,
## #   acousticness <int>, instrumentalness <int>, liveness <int>, valence <int>,
## #   tempo <int>, time_signature <int>, genres <int>, followers <int>,
## #   song_name <int>, song_popularity <int>, artist_popularity <int>,
## #   sleepiness <int>

# provide a table of counts for each level
joined_dat %>% group_by(artists) %>% summarize(n())

## # A tibble: 106,738 x 2
##    artists                                                                 `n()`
##    <chr>                                                                   <int>
##  1 "-M-"                                                                      27
##  2 "-M-', 'Toumani Diabat', 'Sidiki Diabat', 'Fatoumata Diawara"             1
##  3 "-M-', 'Toumani Diabat', 'Sidiki Diabat', 'Fatoumata Diawara', 'Oxmo     1
##  4 "-M-', 'Toumani Diabat', 'Sidiki Diabat', 'Santigold', 'Hiba Tawaji'     1
##  5 "Siesta "                                                 1
##  6 "? & The Mysterians"                                                        6
##  7 "?te"                                                                       4
##  8 ".Feast"                                                                    4
##  9 ".Feast', 'Karaeng Adjie"                                                   1
## 10 ".Feast', 'Rayssa Dynta"                                                    1
## #  with 106,728 more rows

joined_dat %>% group_by(song_name) %>% summarize(n())

## # A tibble: 436,919 x 2
##    song_name                `n()`
##    <chr>                    <int>
##  1 -                            1
##  2 - Human - Live               1
##  3 -140                         1
##  4 -OZONE-                      1
##  5 --                       1
##  6  (MENOS)                    1
##  7 star.                       1
##  8      1
##  9            1
## 10 !                            1
## #  with 436,909 more rows

joined_dat %>% group_by(genres) %>% summarize(n())

## # A tibble: 20,112 x 2
##    genres                                                                  `n()`
##    <chr>                                                                   <int>
##  1 ['21st century classical', 'avant-garde', 'british contemporary classi     1
##  2 ['21st century classical', 'british contemporary classical', 'contempo     1
##  3 ['21st century classical', 'british contemporary classical']                1
##  4 ['432hz']                                                                   1
##  5 ['48g', 'idol rock', 'j-idol', 'j-pop girl group']                          3
##  6 ['48g', 'j-idol', 'j-pop girl group']                                       1
##  7 ['48g', 'j-idol', 'j-pop', 'j-pop girl group']                             29
##  8 ['a cappella', 'adult standards', 'lounge', 'vocal jazz']                  31
##  9 ['a cappella', 'barbershop', 'comic', 'shanty']                             3
## 10 ['a cappella', 'barbershop']                                                7
## #  with 20,102 more rows
…
